Measuring performance - A Hugo website
…
dcast from the reshape2 package (superseeded by tidyr)

reshape from the stats package

aggregate from the stats package

dcast from data.table

Once we come up with the possible solutions to this problem, we can then create a reproducible dataset that can be increased easily:

The result looks like:

as_tibble(stocksm)

## # A tibble: 300 x 3
##    time       stock  price
##    <date>     <chr>  <dbl>
##  1 2009-01-01 X      0.115
##  2 2009-01-02 X      0.346
##  3 2009-01-03 X     -0.260
##  4 2009-01-04 X      0.786
##  5 2009-01-05 X      2.29 
##  6 2009-01-06 X      0.518
##  7 2009-01-07 X      1.13 
##  8 2009-01-08 X     -0.180
##  9 2009-01-09 X     -0.754
## 10 2009-01-10 X     -0.362
## # ... with 290 more rows
…
