…
# Gather wide to long
stocksm <- stocks %>% gather(stock, price, -time)

# Create data.table object for benchmarking purposes
stocksm_dt <- data.table::as.data.table(stocksm)

The result looks like:

as_tibble(stocksm)

## # A tibble: 300 x 3
##    time       stock  price
##    <date>     <chr>  <dbl>
##  1 2009-01-01 X      2.66 
##  2 2009-01-02 X     -1.42 
##  3 2009-01-03 X      1.46 
##  4 2009-01-04 X      1.03 
##  5 2009-01-05 X     -0.409
##  6 2009-01-06 X      1.27 
##  7 2009-01-07 X     -1.46 
##  8 2009-01-08 X     -0.261
##  9 2009-01-09 X      1.19 
## 10 2009-01-10 X      0.586
## # ... with 290 more rows
…
