drake: build workflows with R - A Hugo website
…
readd(top_tweeters_recent) %>% as_tibble()

## # A tibble: 4,035 x 3
##    screen_name     query       n
##    <chr>           <chr>   <int>
##  1 rstatsbot1234   #rstats  1640
##  2 CRANberriesFeed #rstats   181
##  3 rweekly_live    #rstats    80
##  4 Tsundu_Mak      #rstats    75
##  5 renato_umeton   #rstats    70
##  6 Rbloggers       #rstats    67
##  7 mdsumner        #rstats    66
##  8 DerFredo        #rstats    56
##  9 Cruz_Julian_    #rstats    51
## 10 hadleywickham   #rstats    45
## # ... with 4,025 more rows
…
